IS415-GAA - Take-Home Exercise 02
…
Reading layer `BATAS_DESA_DESEMBER_2019_DUKCAPIL_DKI_JAKARTA' from data source 
  `C:\xinyeehow\IS415-GAA\Take-Home_Ex\Take-Home_Ex02\data' using driver `ESRI Shapefile'
Simple feature collection with 269 features and 161 fields
Geometry type: MULTIPOLYGON
Dimension:     XY
Bounding box:  xmin: 106.3831 ymin: -6.370815 xmax: 106.9728 ymax: -5.184322
Geodetic CRS:  WGS 84

Aspatial - Vaccination rates of Jakarta from July 2021 to June 2022 (data taken from every first day of the month)

vac_status_july <- read_excel("data/July2021.xlsx")

vac_status_july

# A tibble: 268 × 21
   KODE KELURA…¹ WILAY…² KECAM…³ KELUR…⁴ SASARAN BELUM…⁵ JUMLA…⁶ JUMLA…⁷ TOTAL…⁸
   <chr>         <chr>   <chr>   <chr>     <dbl>   <dbl>   <dbl>   <dbl>   <dbl>
 1 <NA>          <NA>    <NA>    TOTAL   7739060 5041111 2696017 1181740 3877757
 2 3172051003    JAKART… PADEMA… ANCOL     20393   13272    7114    3287   10401
 3 3173041007    JAKART… TAMBORA ANGKE     25785   16477    9299    3221   12520
 4 3175041005    JAKART… KRAMAT… BALE K…   25158   18849    6301    2644    8945
 5 3175031003    JAKART… JATINE… BALI M…    8683    5743    2937    1517    4454
 6 3175101006    JAKART… CIPAYU… BAMBU …   22768   15407    7357    3985   11342
 7 3174031002    JAKART… MAMPAN… BANGKA    18930   12503    6421    2704    9125
 8 3175051002    JAKART… PASAR … BARU      20267   11268    8982    4674   13656
 9 3175041004    JAKART… KRAMAT… BATU A…   41389   30358   11020    5254   16274
10 3171071002    JAKART… TANAH … BENDUN…   19008   11502    7499    3566   11065
# … with 258 more rows, 12 more variables: `LANSIA\r\nDOSIS 1` <dbl>,
#   `LANSIA\r\nDOSIS 2` <dbl>, `LANSIA TOTAL \r\nVAKSIN DIBERIKAN` <dbl>,
#   `PELAYAN PUBLIK\r\nDOSIS 1` <dbl>, `PELAYAN PUBLIK\r\nDOSIS 2` <dbl>,
#   `PELAYAN PUBLIK TOTAL\r\nVAKSIN DIBERIKAN` <dbl>,
#   `GOTONG ROYONG\r\nDOSIS 1` <dbl>, `GOTONG ROYONG\r\nDOSIS 2` <dbl>,
#   `GOTONG ROYONG TOTAL\r\nVAKSIN DIBERIKAN` <dbl>,
#   `TENAGA KESEHATAN\r\nDOSIS 1` <dbl>, `TENAGA KESEHATAN\r\nDOSIS 2` <dbl>, …
…
