IS415-GAA - Hands On Exercise 01
…
Rows: 4161 Columns: 75
── Column specification ────────────────────────────────────────────────────────
Delimiter: ","
chr  (26): listing_url, source, name, description, neighborhood_overview, pi...
dbl  (37): id, scrape_id, host_id, host_listings_count, host_total_listings_...
lgl   (7): host_is_superhost, host_has_profile_pic, host_identity_verified, ...
date  (5): last_scraped, host_since, calendar_last_scraped, first_review, la...

ℹ Use `spec()` to retrieve the full column specification for this data.
ℹ Specify the column types or set `show_col_types = FALSE` to quiet this message.

list(listings) 

[[1]]
# A tibble: 4,161 × 75
       id listing_url    scrap…¹ last_scr…² source name  descr…³ neigh…⁴ pictu…⁵
    <dbl> <chr>            <dbl> <date>     <chr>  <chr> <chr>   <chr>   <chr>  
 1  50646 https://www.a… 2.02e13 2022-09-23 previ… Plea… Fully … The se… https:…
 2  71609 https://www.a… 2.02e13 2022-09-22 city … Ensu… For 3 … <NA>    https:…
 3  71896 https://www.a… 2.02e13 2022-09-22 city … B&B … <b>The… <NA>    https:…
 4  71903 https://www.a… 2.02e13 2022-09-22 city … Room… Like y… Quiet … https:…
 5 275344 https://www.a… 2.02e13 2022-09-22 city … 15 m… Lovely… Bus st… https:…
 6 289234 https://www.a… 2.02e13 2022-09-22 city … Book… This w… A quie… https:…
 7 294281 https://www.a… 2.02e13 2022-09-22 city … 5 mi… I have… <NA>    https:…
 8 324945 https://www.a… 2.02e13 2022-09-22 city … Cozy… <b>The… <NA>    https:…
 9 330089 https://www.a… 2.02e13 2022-09-22 city … Cozy… A unit… <NA>    https:…
10 330095 https://www.a… 2.02e13 2022-09-22 city … 10 m… Cosy, … Near I… https:…
# … with 4,151 more rows, 66 more variables: host_id <dbl>, host_url <chr>,
#   host_name <chr>, host_since <date>, host_location <chr>, host_about <chr>,
#   host_response_time <chr>, host_response_rate <chr>,
#   host_acceptance_rate <chr>, host_is_superhost <lgl>,
#   host_thumbnail_url <chr>, host_picture_url <chr>, host_neighbourhood <chr>,
#   host_listings_count <dbl>, host_total_listings_count <dbl>,
#   host_verifications <chr>, host_has_profile_pic <lgl>, …
…
